{
  "about": {
    "text": "Lorem ipsum dolor sit amet, consectetur adipiscing elit. Nam elementum, justo sit amet rhoncus finibus, risus urna bibendum ligula, ac aliquet dui dolor eu purus. Donec vel tortor faucibus, condimentum neque non, lacinia sapien. Interdum et malesuada fames ac ante ipsum primis in faucibus. Pellentesque quis neque non nulla consequat semper. Aliquam eros odio, aliquet ultrices malesuada ac, posuere eu ex. Suspendisse faucibus condimentum nibh. Aliquam erat volutpat. Maecenas sodales sagittis nisi, sit amet gravida est fermentum id. Vestibulum ante ipsum primis in faucibus orci luctus et ultrices posuere cubilia Curae; Donec sodales laoreet magna id rutrum. Fusce sollicitudin felis sit amet leo pulvinar maximus."
  }
}
